<?xml version="1.0" encoding="utf-8"?>
<!-- Generator: Adobe Illustrator 21.1.0, SVG Export Plug-In . SVG Version: 6.00 Build 0)  -->
<svg version="1.1" id="Camada_1" xmlns="http://www.w3.org/2000/svg" xmlns:xlink="http://www.w3.org/1999/xlink" x="0px" y="0px"
	 viewBox="0 0 236.1 236.1" style="enable-background:new 0 0 236.1 236.1;" xml:space="preserve">
<style type="text/css">
	.st0{fill:#005596;}
	.st1{fill-rule:evenodd;clip-rule:evenodd;fill:url(#SVGID_1_);}
	.st2{fill-rule:evenodd;clip-rule:evenodd;fill:url(#SVGID_2_);}
	.st3{fill:#DA7727;}
	.st4{fill-rule:evenodd;clip-rule:evenodd;fill:url(#SVGID_3_);}
	.st5{fill:#CA412E;}
	.st6{fill:#076E3A;}
	.st7{fill:#FFFFFF;}
	.st8{fill:#FDC016;}
</style>
<g>
	<path class="st0" d="M125.1,14.4h1c36.8,0.3,66.6,30.2,66.8,67.2V83c-0.1,7-1.3,13.8-3.3,20.2h0c-15.4-8.8-38.8-14.4-65-14.4l0,0
		c-25.3,0-47.9,5.2-63.3,13.5c-1.9-6.3-3-12.9-3.1-19.9V82C58.3,44.8,88.2,14.7,125.1,14.4z"/>
	
		<radialGradient id="SVGID_1_" cx="128.7818" cy="64.7927" r="47.6505" gradientTransform="matrix(1.0291 0 0 1.0349 -6.899 -8.2466)" gradientUnits="userSpaceOnUse">
		<stop  offset="0" style="stop-color:#81BDE4"/>
		<stop  offset="1" style="stop-color:#2866A6"/>
	</radialGradient>
	<path class="st1" d="M126.1,14.4h-1C88.2,14.7,58.3,44.8,58.3,82v0.5c0,6.9,1.1,13.6,3.1,19.9c15.4-8.3,38.1-13.5,63.3-13.5l0,0
		c26.2,0,49.5,5.6,65,14.4h0c2.1-6.4,3.2-13.2,3.3-20.2v-1.4C192.7,44.6,162.9,14.7,126.1,14.4z"/>
	<linearGradient id="SVGID_2_" gradientUnits="userSpaceOnUse" x1="121.849" y1="160.5341" x2="129.5427" y2="72.5953">
		<stop  offset="0" style="stop-color:#C1CC3D"/>
		<stop  offset="1" style="stop-color:#50844D"/>
	</linearGradient>
	<path class="st2" d="M152.8,136.5c16.9,2.2,33,5.2,47.7,8.8c5.3-5.2,8.3-10.9,8.3-17c0-21.8-37.6-39.4-84.1-39.4
		s-84.1,17.6-84.1,39.4c0,3.2,0.8,6.4,2.4,9.4C69.1,131.7,108.9,130.8,152.8,136.5L152.8,136.5z"/>
	<ellipse class="st3" cx="82.6" cy="35" rx="28.2" ry="28.3"/>
	
		<radialGradient id="SVGID_3_" cx="87.0073" cy="41.8253" r="27.8862" gradientTransform="matrix(1.0291 0 0 1.0349 -6.899 -8.2466)" gradientUnits="userSpaceOnUse">
		<stop  offset="0" style="stop-color:#F0D529"/>
		<stop  offset="1" style="stop-color:#D08229"/>
	</radialGradient>
	<ellipse class="st4" cx="82.6" cy="35" rx="28.2" ry="28.3"/>
	<polygon class="st5" points="105.4,105.1 61.8,108.8 91.9,71.7 138.7,71.1 	"/>
	<polygon class="st6" points="124.5,101.9 124.5,147 70.9,134.3 70.9,104.1 96.5,72.3 	"/>
	<polygon class="st7" points="179.8,141.2 124.5,147.1 124.5,103.9 179.8,100.7 	"/>
	<polygon class="st8" points="190,103.2 128.5,108.4 91.6,71.7 155.6,67.9 	"/>
	<polygon class="st6" points="174.5,120.8 161.9,122.2 161.8,111.2 174.3,109.8 	"/>
	<polygon class="st6" points="152,141.7 139.4,143.1 139.3,113.5 151.8,112.1 	"/>
	<path d="M6.7,160.5h12.5l4.1,16.8h0.1l4.1-16.8h12.5v28.6h-8.3v-18.4h-0.1l-4.9,18.4h-6.5l-4.9-18.4H15v18.4H6.7V160.5L6.7,160.5z
		 M42.9,168.3h7.9v20.8h-7.9V168.3L42.9,168.3z M50.8,166h-7.9v-5.6h7.9V166L50.8,166z M53.7,168.3h7.6v2.6h0.1
		c1.5-2.1,3.6-3.2,6.7-3.2c3.7,0,7.1,2.3,7.1,7.1v14.3h-7.9v-10.9c0-2.4-0.3-4.1-2.6-4.1c-1.4,0-3.1,0.7-3.1,4v11h-7.9V168.3
		L53.7,168.3z M77.9,160.5h7.9v10.1h0.1c1.4-1.6,3.1-2.8,6.5-2.8c3.7,0,7.1,2.3,7.1,7.1v14.3h-7.9v-10.9c0-2.4-0.3-4.1-2.6-4.1
		c-1.4,0-3.2,0.7-3.2,4v11h-7.9V160.5L77.9,160.5z M114.8,179.7c-1,0.5-2,0.8-3.1,1c-1.8,0.4-2.7,0.8-2.7,2.2c0,1,1,1.9,2.5,1.9
		c1.8,0,3.2-1.1,3.3-3.2V179.7L114.8,179.7z M122.3,184.4c0,1.6,0.1,3.3,1,4.7h-8.1c-0.2-0.6-0.3-1.4-0.3-2h-0.1
		c-1.7,1.9-4.1,2.5-6.7,2.5c-4,0-7.3-1.9-7.3-6.3c0-6.6,7.7-6.3,11.7-7.1c1.1-0.2,2.2-0.5,2.2-1.8c0-1.4-1.3-1.9-2.6-1.9
		c-2.4,0-2.9,1.2-3,2.1h-7.3c0.2-5.9,5.7-6.8,10.6-6.8c9.9,0,9.8,4.1,9.8,8.1V184.4L122.3,184.4z M154.7,171.1c-0.2-1-1-4.2-4.6-4.2
		c-4.1,0-5.4,4-5.4,7.9c0,3.8,1.3,7.9,5.4,7.9c3,0,4.1-2.1,4.6-4.8h8.6c0,5.8-4.7,11.9-13,11.9c-9.2,0-14.4-6.5-14.4-15
		c0-9,5.7-15,14.4-15c7.8,0,12.1,4.2,12.9,11.3H154.7L154.7,171.1z M177.9,179.7c-1,0.5-2,0.8-3.1,1c-1.8,0.4-2.7,0.8-2.7,2.2
		c0,1,1,1.9,2.5,1.9c1.8,0,3.2-1.1,3.3-3.2V179.7L177.9,179.7z M185.5,184.4c0,1.6,0.1,3.3,1,4.7h-8.1c-0.2-0.6-0.3-1.4-0.3-2H178
		c-1.7,1.9-4.1,2.5-6.7,2.5c-4,0-7.3-1.9-7.3-6.3c0-6.6,7.7-6.3,11.7-7.1c1.1-0.2,2.2-0.5,2.2-1.8c0-1.4-1.3-1.9-2.6-1.9
		c-2.4,0-2.9,1.2-3,2.1H165c0.2-5.9,5.7-6.8,10.6-6.8c9.9,0,9.8,4.1,9.8,8.1V184.4L185.5,184.4z M200,174.3c0-0.7-0.4-1.2-0.9-1.6
		c-0.5-0.4-1.1-0.6-1.8-0.6c-1.1,0-2.4,0.2-2.4,1.6c0,0.6,0.5,0.9,0.9,1.1c1.3,0.6,4.3,0.7,6.9,1.6c2.6,0.8,4.9,2.4,4.9,5.8
		c0,5.8-5.5,7.3-10.5,7.3c-4.9,0-10.2-2-10.3-7.3h7.5c0,0.7,0.4,1.3,1,1.8c0.4,0.4,1.2,0.6,2.1,0.6c1,0,2.7-0.4,2.7-1.6
		c0-1.2-0.7-1.6-4.3-2.2c-6-1-8.5-3-8.5-6.5c0-5.3,5.6-6.6,9.8-6.6c4.5,0,9.8,1.2,10,6.6H200L200,174.3z M222,179.7
		c-1,0.5-2,0.8-3.1,1c-1.8,0.4-2.7,0.8-2.7,2.2c0,1,1,1.9,2.5,1.9c1.8,0,3.2-1.1,3.3-3.2V179.7L222,179.7z M229.5,184.4
		c0,1.6,0.1,3.3,1,4.7h-8.1c-0.2-0.6-0.3-1.4-0.3-2h-0.1c-1.7,1.9-4.1,2.5-6.7,2.5c-4,0-7.3-1.9-7.3-6.3c0-6.6,7.7-6.3,11.7-7.1
		c1.1-0.2,2.2-0.5,2.2-1.8c0-1.4-1.3-1.9-2.6-1.9c-2.4,0-2.9,1.2-2.9,2.1h-7.3c0.2-5.9,5.7-6.8,10.6-6.8c9.9,0,9.8,4.1,9.8,8.1
		V184.4L229.5,184.4z M6.7,199.6h12.9l4.2,17.4h0.1l4.2-17.4h12.9v29.5h-8.6v-18.9h-0.1l-5.1,18.9h-6.7l-5.1-18.9h-0.1v18.9H6.7
		V199.6L6.7,199.6z M44.8,207.7H53v21.5h-8.1V207.7L44.8,207.7z M53,205.3h-8.1v-5.8H53V205.3L53,205.3z M56.8,207.7h7.9v2.7h0.1
		c1.5-2.2,3.7-3.3,7-3.3c3.8,0,7.3,2.4,7.3,7.3v14.7h-8.1v-11.3c0-2.5-0.3-4.2-2.7-4.2c-1.4,0-3.2,0.7-3.2,4.1v11.3h-8.1V207.7
		L56.8,207.7z M82.6,199.6h8.1V210h0.1c1.4-1.7,3.2-2.9,6.7-2.9c3.8,0,7.3,2.4,7.3,7.3v14.7h-8.1v-11.3c0-2.5-0.3-4.2-2.7-4.2
		c-1.4,0-3.3,0.7-3.3,4.1v11.3h-8.1V199.6L82.6,199.6z M121.5,219.5c-1,0.5-2.1,0.8-3.2,1c-1.8,0.4-2.8,0.9-2.8,2.3c0,1,1.1,2,2.6,2
		c1.9,0,3.3-1.1,3.4-3.4V219.5L121.5,219.5z M129.3,224.3c0,1.6,0.1,3.4,1,4.8h-8.3c-0.2-0.6-0.3-1.4-0.3-2h-0.1
		c-1.7,2-4.2,2.6-6.9,2.6c-4.1,0-7.5-2-7.5-6.5c0-6.8,7.9-6.5,12.1-7.3c1.1-0.2,2.2-0.5,2.2-1.9c0-1.4-1.4-2-2.7-2
		c-2.5,0-3,1.3-3,2.2h-7.6c0.2-6,5.9-7,11-7c10.2,0,10.1,4.3,10.1,8.4V224.3L129.3,224.3z M161.6,229.1h-10.1l-8.8-29.5h9.1
		l4.8,17.9h0.1l4.7-17.9h9.3L161.6,229.1L161.6,229.1z M170.9,207.7h8.1v21.5h-8.1V207.7L170.9,207.7z M179.1,205.3h-8.1v-5.8h8.1
		V205.3L179.1,205.3z M193.7,213.1c-2.9,0-3.6,2.8-3.6,5.3c0,2.6,0.7,5.3,3.6,5.3c2.9,0,3.6-2.8,3.6-5.3
		C197.3,215.9,196.6,213.1,193.7,213.1L193.7,213.1z M205.1,229.1h-7.9v-2.4h-0.1c-1,1.4-2.3,2.9-6.3,2.9c-6,0-9-6-9-11.4
		c0-5,1.9-11.2,9.1-11.2c2.4,0,4.6,1.1,5.8,2.9h0.1v-10.4h8.1V229.1L205.1,229.1z M221.8,219.5c-1,0.5-2.1,0.8-3.2,1
		c-1.8,0.4-2.8,0.9-2.8,2.3c0,1,1.1,2,2.6,2c1.9,0,3.3-1.1,3.4-3.4V219.5L221.8,219.5z M229.6,224.3c0,1.6,0.1,3.4,1,4.8h-8.3
		c-0.2-0.6-0.3-1.4-0.3-2h-0.1c-1.7,2-4.2,2.6-6.9,2.6c-4.1,0-7.5-2-7.5-6.5c0-6.8,7.9-6.5,12.1-7.3c1.1-0.2,2.2-0.5,2.2-1.9
		c0-1.4-1.4-2-2.7-2c-2.5,0-3,1.3-3,2.2h-7.6c0.2-6,5.9-7,11-7c10.2,0,10.1,4.3,10.1,8.4V224.3z"/>
</g>
</svg>
